…
Each dplyr verb takes a data frame as input and returns a modified version of it.

### Gapminder Data

The Gapminder package contains data on life expectancy, GDP per capita, and population by country. The main data frame `gapminder` has 1704 rows and 6 variables. Check `?gapminder` for more information on the data set.

The `gapminder` data frame is a special kind of data frame: a tibble. Compared to a `data.frame`, tibbles have a refined print method that shows the first 10 rows and columns that fit on the screen - useful when working with moderate to large data sets.

``` r
dim(gapminder)
# [1] 1704    6
gapminder
# # A tibble: 1,704 x 6
#        country continent  year lifeExp      pop gdpPercap
#         <fctr>    <fctr> <int>   <dbl>    <int>     <dbl>
#  1 Afghanistan      Asia  1952  28.801  8425333  779.4453
#  2 Afghanistan      Asia  1957  30.332  9240934  820.8530
#  3 Afghanistan      Asia  1962  31.997 10267083  853.1007
#  4 Afghanistan      Asia  1967  34.020 11537966  836.1971
#  5 Afghanistan      Asia  1972  36.088 13079460  739.9811
#  6 Afghanistan      Asia  1977  38.438 14880372  786.1134
#  7 Afghanistan      Asia  1982  39.854 12881816  978.0114
#  8 Afghanistan      Asia  1987  40.822 13867957  852.3959
#  9 Afghanistan      Asia  1992  41.674 16317921  649.3414
# 10 Afghanistan      Asia  1997  41.763 22227415  635.3414
# # ... with 1,694 more rows
```
…
### Use `arrange()` to sort data

`arrange()` works similarly to `filter()` except that instead of filtering or selecting rows, it reorders them.

To arrange `gapminder` in ascending order of life expectancy.

``` r
arrange(gapminder, lifeExp)
# # A tibble: 1,704 x 6
#         country continent  year lifeExp     pop gdpPercap
#          <fctr>    <fctr> <int>   <dbl>   <int>     <dbl>
#  1       Rwanda    Africa  1992  23.599 7290203  737.0686
#  2  Afghanistan      Asia  1952  28.801 8425333  779.4453
#  3       Gambia    Africa  1952  30.000  284320  485.2307
#  4       Angola    Africa  1952  30.015 4232095 3520.6103
#  5 Sierra Leone    Africa  1952  30.331 2143249  879.7877
#  6  Afghanistan      Asia  1957  30.332 9240934  820.8530
#  7     Cambodia      Asia  1977  31.220 6978607  524.9722
#  8   Mozambique    Africa  1952  31.286 6446316  468.5260
#  9 Sierra Leone    Africa  1957  31.570 2295678 1004.4844
# 10 Burkina Faso    Africa  1952  31.975 4469979  543.2552
# # ... with 1,694 more rows

# Use `desc()` to order a column in descending order:

arrange(gapminder, desc(lifeExp))
# # A tibble: 1,704 x 6
#             country continent  year lifeExp       pop gdpPercap
#              <fctr>    <fctr> <int>   <dbl>     <int>     <dbl>
#  1            Japan      Asia  2007  82.603 127467972  31656.07
#  2 Hong Kong, China      Asia  2007  82.208   6980412  39724.98
#  3            Japan      Asia  2002  82.000 127065841  28604.59
#  4          Iceland    Europe  2007  81.757    301931  36180.79
#  5      Switzerland    Europe  2007  81.701   7554661  37506.42
#  6 Hong Kong, China      Asia  2002  81.495   6762476  30209.02
#  7        Australia   Oceania  2007  81.235  20434176  34435.37
#  8            Spain    Europe  2007  80.941  40448191  28821.06
#  9           Sweden    Europe  2007  80.884   9031088  33859.75
# 10           Israel      Asia  2007  80.745   6426679  25523.28
# # ... with 1,694 more rows
```

### Use `select()` to select specific variables or columns

When you are only interested in a few columns, use `select()` to quickly narrow down a subset using operations that only work on numeric variable positions.

``` r
# Select columns population and life expectancy by name
select(gapminder, lifeExp, pop)
# # A tibble: 1,704 x 2
#    lifeExp      pop
#      <dbl>    <int>
#  1  28.801  8425333
#  2  30.332  9240934
#  3  31.997 10267083
#  4  34.020 11537966
#  5  36.088 13079460
#  6  38.438 14880372
#  7  39.854 12881816
#  8  40.822 13867957
#  9  41.674 16317921
# 10  41.763 22227415
# # ... with 1,694 more rows

# Select all columns from year to population
select(gapminder, year:gdpPercap)
# # A tibble: 1,704 x 4
#     year lifeExp      pop gdpPercap
#    <int>   <dbl>    <int>     <dbl>
#  1  1952  28.801  8425333  779.4453
#  2  1957  30.332  9240934  820.8530
#  3  1962  31.997 10267083  853.1007
#  4  1967  34.020 11537966  836.1971
#  5  1972  36.088 13079460  739.9811
#  6  1977  38.438 14880372  786.1134
#  7  1982  39.854 12881816  978.0114
#  8  1987  40.822 13867957  852.3959
#  9  1992  41.674 16317921  649.3414
# 10  1997  41.763 22227415  635.3414
# # ... with 1,694 more rows

# Select all columns except those from year to population
select(gapminder, -(year:gdpPercap))
# # A tibble: 1,704 x 2
#        country continent
#         <fctr>    <fctr>
#  1 Afghanistan      Asia
#  2 Afghanistan      Asia
#  3 Afghanistan      Asia
#  4 Afghanistan      Asia
#  5 Afghanistan      Asia
#  6 Afghanistan      Asia
#  7 Afghanistan      Asia
#  8 Afghanistan      Asia
#  9 Afghanistan      Asia
# 10 Afghanistan      Asia
# # ... with 1,694 more rows
```

You can also rename variables with `select()` by using named arguments.

``` r
select(gapminder, life_expectancy = lifeExp)
# # A tibble: 1,704 x 1
#    life_expectancy
#              <dbl>
#  1          28.801
#  2          30.332
#  3          31.997
#  4          34.020
#  5          36.088
#  6          38.438
#  7          39.854
#  8          40.822
#  9          41.674
# 10          41.763
# # ... with 1,694 more rows
```

But because `select()` drops all the variables not explicitly mentioned, it's not often useful. Instead, use `rename()`

``` r
rename(gapminder, life_expectancy = lifeExp)
# # A tibble: 1,704 x 6
#        country continent  year life_expectancy      pop gdpPercap
#         <fctr>    <fctr> <int>           <dbl>    <int>     <dbl>
#  1 Afghanistan      Asia  1952          28.801  8425333  779.4453
#  2 Afghanistan      Asia  1957          30.332  9240934  820.8530
#  3 Afghanistan      Asia  1962          31.997 10267083  853.1007
#  4 Afghanistan      Asia  1967          34.020 11537966  836.1971
#  5 Afghanistan      Asia  1972          36.088 13079460  739.9811
#  6 Afghanistan      Asia  1977          38.438 14880372  786.1134
#  7 Afghanistan      Asia  1982          39.854 12881816  978.0114
#  8 Afghanistan      Asia  1987          40.822 13867957  852.3959
#  9 Afghanistan      Asia  1992          41.674 16317921  649.3414
# 10 Afghanistan      Asia  1997          41.763 22227415  635.3414
# # ... with 1,694 more rows
```
### Use `distinct()` to find unique values in a column

``` r
distinct(gapminder, continent)
# # A tibble: 5 x 1
#   continent
#      <fctr>
# 1      Asia
# 2    Europe
# 3    Africa
# 4  Americas
# 5   Oceania

distinct(gapminder, country, continent)
# # A tibble: 142 x 2
#        country continent
#         <fctr>    <fctr>
#  1 Afghanistan      Asia
#  2     Albania    Europe
#  3     Algeria    Africa
#  4      Angola    Africa
#  5   Argentina  Americas
#  6   Australia   Oceania
#  7     Austria    Europe
#  8     Bahrain      Asia
#  9  Bangladesh      Asia
# 10     Belgium    Europe
# # ... with 132 more rows
```
…
### Use `mutate()` to add new variables

Suppose we wanted to recover each country's GDP. The Gapminder data has a variable for population and GDP per capita so we only need to multiply them together.

``` r
gapminder %>%
  mutate(gdp = pop * gdpPercap) %>%
  select(country, year, gdp)
# # A tibble: 1,704 x 3
#        country  year         gdp
#         <fctr> <int>       <dbl>
#  1 Afghanistan  1952  6567086330
#  2 Afghanistan  1957  7585448670
#  3 Afghanistan  1962  8758855797
#  4 Afghanistan  1967  9648014150
#  5 Afghanistan  1972  9678553274
#  6 Afghanistan  1977 11697659231
#  7 Afghanistan  1982 12598563401
#  8 Afghanistan  1987 11820990309
#  9 Afghanistan  1992 10595901589
# 10 Afghanistan  1997 14121995875
# # ... with 1,694 more rows
```
…
### Use `group_by()` to add extra structure

We can use `group_by()` to get the life expectancy of selected (`filter()`) countries across time.

``` r
countryS <- c("United States", "Sweden", "Thailand", "China", "Iraq", "Afghanistan")

compare.lifeExp <- gapminder %>%
  filter(country %in% countryS) %>%
  group_by(year, country) 

compare.lifeExp
# # A tibble: 72 x 6
# # Groups:   year, country [72]
#        country continent  year lifeExp      pop gdpPercap
#         <fctr>    <fctr> <int>   <dbl>    <int>     <dbl>
#  1 Afghanistan      Asia  1952  28.801  8425333  779.4453
#  2 Afghanistan      Asia  1957  30.332  9240934  820.8530
#  3 Afghanistan      Asia  1962  31.997 10267083  853.1007
#  4 Afghanistan      Asia  1967  34.020 11537966  836.1971
#  5 Afghanistan      Asia  1972  36.088 13079460  739.9811
#  6 Afghanistan      Asia  1977  38.438 14880372  786.1134
#  7 Afghanistan      Asia  1982  39.854 12881816  978.0114
#  8 Afghanistan      Asia  1987  40.822 13867957  852.3959
#  9 Afghanistan      Asia  1992  41.674 16317921  649.3414
# 10 Afghanistan      Asia  1997  41.763 22227415  635.3414
# # ... with 62 more rows
…
<img src="figures/14-wk04-1.png" style="display: block; margin: auto;" />

We can also pipe `group_by()` and `summarise()` to get the average life expectancy grouped by year and continent.

``` r
continent.lifeExp <- gapminder %>%
  group_by(year, continent) %>%
  summarise(ave.lifeExp = mean(lifeExp))

continent.lifeExp
# # A tibble: 60 x 3
# # Groups:   year [?]
#     year continent ave.lifeExp
#    <int>    <fctr>       <dbl>
#  1  1952    Africa    39.13550
#  2  1952  Americas    53.27984
#  3  1952      Asia    46.31439
#  4  1952    Europe    64.40850
#  5  1952   Oceania    69.25500
#  6  1957    Africa    41.26635
#  7  1957  Americas    55.96028
#  8  1957      Asia    49.31854
#  9  1957    Europe    66.70307
# 10  1957   Oceania    70.29500
# # ... with 50 more rows
…
